{
  "project_info": {
    "project_number": "423330288352",
    "firebase_url": "https://goancart-4b590.firebaseio.com",
    "project_id": "goancart-4b590",
    "storage_bucket": "goancart-4b590.appspot.com"
  },
  "client": [
    {
      "client_info": {
        "mobilesdk_app_id": "1:423330288352:android:8cb9bdccdf85329923f685",
        "android_client_info": {
          "package_name": "com.fabcoders.addressView"
        }
      },
      "oauth_client": [
        {
          "client_id": "423330288352-v1p7g41fkqlmqcip82upkrfbbk78g9o3.apps.googleusercontent.com",
          "client_type": 3
        }
      ],
      "api_key": [
        {
          "current_key": "AIzaSyBSQr4lskxurgs0KdnMCHiWRylsa_j9hmU"
        }
      ],
      "services": {
        "appinvite_service": {
          "other_platform_oauth_client": [
            {
              "client_id": "423330288352-v1p7g41fkqlmqcip82upkrfbbk78g9o3.apps.googleusercontent.com",
              "client_type": 3
            }
          ]
        }
      }
    },
    {
      "client_info": {
        "mobilesdk_app_id": "1:423330288352:android:1b327979afb9e23023f685",
        "android_client_info": {
          "package_name": "com.fabcoders.goancart"
        }
      },
      "oauth_client": [
        {
          "client_id": "423330288352-v1p7g41fkqlmqcip82upkrfbbk78g9o3.apps.googleusercontent.com",
          "client_type": 3
        }
      ],
      "api_key": [
        {
          "current_key": "AIzaSyBSQr4lskxurgs0KdnMCHiWRylsa_j9hmU"
        }
      ],
      "services": {
        "appinvite_service": {
          "other_platform_oauth_client": [
            {
              "client_id": "423330288352-v1p7g41fkqlmqcip82upkrfbbk78g9o3.apps.googleusercontent.com",
              "client_type": 3
            }
          ]
        }
      }
    }
  ],
  "configuration_version": "1"
}